{
  "Version": "2012-10-17",
  "Statement": [
    {
      "Effect": "Allow",
      "Action": [
        "s3:CreateBucket",
        "s3:PutBucketObjectLockConfiguration"
      ],
      "Resource": "arn:aws:s3:::test-bucket-5457"
    }
  ]
}