{
  "Version": "2012-10-17",
  "Statement": {
    "Effect": "Allow",
    "Action": [
      "kinesis:CreateStream",
      "kinesis:DeleteStream"
    ],
    "Resource": "arn:aws:kinesis:us-east-1:{accountId}:stream/test-stream-5457"
  }
}